<?xml version="1.0" encoding="UTF-8" standalone="yes"?><svg xmlns="http://www.w3.org/2000/svg" width="900" height="500" viewBox="0 0 900 500" preserveAspectRatio="none"><!--
Source URL: holder.js/900x500/auto/#777:#777
Created with Holder.js 2.6.0.
Learn more at http://holderjs.com
(c) 2012-2015 Ivan Malopinsky - http://imsky.co
--><defs><style type="text/css"><![CDATA[#holder_150e5d5adf1 text { fill:#777;font-weight:bold;font-family:Arial, Helvetica, Open Sans, sans-serif, monospace;font-size:45pt } ]]></style></defs><g id="holder_150e5d5adf1"><rect width="900" height="500" fill="#777"/><g><text x="333.21666717529297" y="270.4">900x500</text></g></g></svg>